miniRV/waveform.vcd
$version Generated by VerilatedVcd $end
$timescale 1ps $end
 $scope module TOP $end
  $var wire 1 D reg_reset $end
  $var wire 1 E mem_reset $end
  $var wire 1 F rom_wen $end
  $var wire 32 G rom_wdata [31:0] $end
  $var wire 32 H rom_addr [31:0] $end
  $var wire 1 I clk $end
  $var wire 32 J regs_out[0] [31:0] $end
  $var wire 32 K regs_out[1] [31:0] $end
  $var wire 32 L regs_out[2] [31:0] $end
  $var wire 32 M regs_out[3] [31:0] $end
  $var wire 32 N regs_out[4] [31:0] $end
  $var wire 32 O regs_out[5] [31:0] $end
  $var wire 32 P regs_out[6] [31:0] $end
  $var wire 32 Q regs_out[7] [31:0] $end
  $var wire 32 R regs_out[8] [31:0] $end
  $var wire 32 S regs_out[9] [31:0] $end
  $var wire 32 T regs_out[10] [31:0] $end
  $var wire 32 U regs_out[11] [31:0] $end
  $var wire 32 V regs_out[12] [31:0] $end
  $var wire 32 W regs_out[13] [31:0] $end
  $var wire 32 X regs_out[14] [31:0] $end
  $var wire 32 Y regs_out[15] [31:0] $end
  $var wire 32 Z pc [31:0] $end
  $scope module miniRV $end
   $var wire 1 D reg_reset $end
   $var wire 1 E mem_reset $end
   $var wire 1 F rom_wen $end
   $var wire 32 G rom_wdata [31:0] $end
   $var wire 32 H rom_addr [31:0] $end
   $var wire 1 I clk $end
   $var wire 32 J regs_out[0] [31:0] $end
   $var wire 32 K regs_out[1] [31:0] $end
   $var wire 32 L regs_out[2] [31:0] $end
   $var wire 32 M regs_out[3] [31:0] $end
   $var wire 32 N regs_out[4] [31:0] $end
   $var wire 32 O regs_out[5] [31:0] $end
   $var wire 32 P regs_out[6] [31:0] $end
   $var wire 32 Q regs_out[7] [31:0] $end
   $var wire 32 R regs_out[8] [31:0] $end
   $var wire 32 S regs_out[9] [31:0] $end
   $var wire 32 T regs_out[10] [31:0] $end
   $var wire 32 U regs_out[11] [31:0] $end
   $var wire 32 V regs_out[12] [31:0] $end
   $var wire 32 W regs_out[13] [31:0] $end
   $var wire 32 X regs_out[14] [31:0] $end
   $var wire 32 Y regs_out[15] [31:0] $end
   $var wire 32 Z pc [31:0] $end
   $var wire 32 # inst [31:0] $end
   $var wire 5 $ dec_rd [4:0] $end
   $var wire 5 % dec_rs1 [4:0] $end
   $var wire 5 & dec_rs2 [4:0] $end
   $var wire 32 ' dec_imm [31:0] $end
   $var wire 1 ( dec_wen $end
   $var wire 7 ) dec_opcode [6:0] $end
   $var wire 3 * dec_funct3 [2:0] $end
   $var wire 1 [ is_pc_jump $end
   $var wire 32 \ pc_addr [31:0] $end
   $var wire 32 + rdata1 [31:0] $end
   $var wire 32 , rdata2 [31:0] $end
   $var wire 32 - alu_res [31:0] $end
   $var wire 32 ] wdata [31:0] $end
   $var wire 1 ^ ram_wen $end
   $var wire 32 _ ram_addr [31:0] $end
   $var wire 32 ` ram_wdata [31:0] $end
   $var wire 32 a ram_rdata [31:0] $end
   $var wire 4 b ram_wstrb [3:0] $end
   $scope module u_alu $end
    $var wire 7 ) opcode [6:0] $end
    $var wire 32 + rdata1 [31:0] $end
    $var wire 32 , rdata2 [31:0] $end
    $var wire 32 ' imm [31:0] $end
    $var wire 32 - rout [31:0] $end
   $upscope $end
   $scope module u_dec $end
    $var wire 32 # inst [31:0] $end
    $var wire 5 $ rd [4:0] $end
    $var wire 5 % rs1 [4:0] $end
    $var wire 5 & rs2 [4:0] $end
    $var wire 7 ) opcode [6:0] $end
    $var wire 3 * funct3 [2:0] $end
    $var wire 1 ( wen $end
    $var wire 32 ' imm [31:0] $end
    $var wire 1 . sign $end
   $upscope $end
   $scope module u_pc $end
    $var wire 1 I clk $end
    $var wire 1 D reset $end
    $var wire 32 \ in_addr [31:0] $end
    $var wire 1 [ is_addr $end
    $var wire 32 Z out_addr [31:0] $end
    $var wire 32 / next_addr [31:0] $end
   $upscope $end
   $scope module u_ram $end
    $var wire 1 I clk $end
    $var wire 1 E reset $end
    $var wire 1 ^ wen $end
    $var wire 32 ` wdata [31:0] $end
    $var wire 4 b wstrb [3:0] $end
    $var wire 32 _ addr [31:0] $end
    $var wire 32 a read_data [31:0] $end
    $var wire 32 c sv_mem_read__Vstatic__result [31:0] $end
    $var wire 64 d sv_mem_ptr__Vstatic__mem_ptr_out [63:0] $end
    $var wire 64 f sv_vga_ptr__Vstatic__vga_ptr_out [63:0] $end
   $upscope $end
   $scope module u_rf $end
    $var wire 1 I clk $end
    $var wire 1 D reset $end
    $var wire 1 ( wen $end
    $var wire 5 $ rd [4:0] $end
    $var wire 5 % rs1 [4:0] $end
    $var wire 5 & rs2 [4:0] $end
    $var wire 32 ] wdata [31:0] $end
    $var wire 32 J regs_out[0] [31:0] $end
    $var wire 32 K regs_out[1] [31:0] $end
    $var wire 32 L regs_out[2] [31:0] $end
    $var wire 32 M regs_out[3] [31:0] $end
    $var wire 32 N regs_out[4] [31:0] $end
    $var wire 32 O regs_out[5] [31:0] $end
    $var wire 32 P regs_out[6] [31:0] $end
    $var wire 32 Q regs_out[7] [31:0] $end
    $var wire 32 R regs_out[8] [31:0] $end
    $var wire 32 S regs_out[9] [31:0] $end
    $var wire 32 T regs_out[10] [31:0] $end
    $var wire 32 U regs_out[11] [31:0] $end
    $var wire 32 V regs_out[12] [31:0] $end
    $var wire 32 W regs_out[13] [31:0] $end
    $var wire 32 X regs_out[14] [31:0] $end
    $var wire 32 Y regs_out[15] [31:0] $end
    $var wire 32 + rdata1 [31:0] $end
    $var wire 32 , rdata2 [31:0] $end
    $var wire 32 0 regs[0] [31:0] $end
    $var wire 32 1 regs[1] [31:0] $end
    $var wire 32 2 regs[2] [31:0] $end
    $var wire 32 3 regs[3] [31:0] $end
    $var wire 32 4 regs[4] [31:0] $end
    $var wire 32 5 regs[5] [31:0] $end
    $var wire 32 6 regs[6] [31:0] $end
    $var wire 32 7 regs[7] [31:0] $end
    $var wire 32 8 regs[8] [31:0] $end
    $var wire 32 9 regs[9] [31:0] $end
    $var wire 32 : regs[10] [31:0] $end
    $var wire 32 ; regs[11] [31:0] $end
    $var wire 32 < regs[12] [31:0] $end
    $var wire 32 = regs[13] [31:0] $end
    $var wire 32 > regs[14] [31:0] $end
    $var wire 32 ? regs[15] [31:0] $end
    $var wire 4 @ trunc_rd [3:0] $end
    $var wire 4 A trunc_rs1 [3:0] $end
    $var wire 4 B trunc_rs2 [3:0] $end
    $var wire 32 C i [31:0] $end
    $var wire 32 i j [31:0] $end
   $upscope $end
   $scope module u_rom $end
    $var wire 32 Z addr [31:0] $end
    $var wire 32 # read_data [31:0] $end
    $var wire 32 h sv_rom_read__Vstatic__result [31:0] $end
   $upscope $end
  $upscope $end
 $upscope $end
$enddefinitions $end


#0
b00110010001101110010000000000011 #
b00000 $
b01110 %
b00011 &
b00000000000000000000001100100011 '
1(
b0000011 )
b010 *
b00000000000000000000000000000000 +
b00000000000000000000000000000000 ,
b00000000000000000000000000000000 -
0.
b00000000000000000000000000000000 /
b00000000000000000000000000000000 0
b00000000000000000000000000000000 1
b00000000000000000000000000000000 2
b00000000000000000000000000000000 3
b00000000000000000000000000000000 4
b00000000000000000000000000000000 5
b00000000000000000000000000000000 6
b00000000000000000000000000000000 7
b00000000000000000000000000000000 8
b00000000000000000000000000000000 9
b00000000000000000000000000000000 :
b00000000000000000000000000000000 ;
b00000000000000000000000000000000 <
b00000000000000000000000000000000 =
b00000000000000000000000000000000 >
b00000000000000000000000000000000 ?
b0000 @
b1110 A
b0011 B
b00000000000000000000000000010000 C
0D
0E
0F
b01101010000101001010101010100011 G
b00000000000000000000001100011100 H
0I
b00000000000000000000000000000000 J
b00000000000000000000000000000000 K
b00000000000000000000000000000000 L
b00000000000000000000000000000000 M
b00000000000000000000000000000000 N
b00000000000000000000000000000000 O
b00000000000000000000000000000000 P
b00000000000000000000000000000000 Q
b00000000000000000000000000000000 R
b00000000000000000000000000000000 S
b00000000000000000000000000000000 T
b00000000000000000000000000000000 U
b00000000000000000000000000000000 V
b00000000000000000000000000000000 W
b00000000000000000000000000000000 X
b00000000000000000000000000000000 Y
b00000000000000000000000000000000 Z
0[
b00000000000000000000000000000000 \
b00000000000000000000000000000000 ]
0^
b00000000000000000000001100100011 _
b00000000000000000000000000000000 `
b00000000000000000000000000000000 a
b0000 b
b00000000000000000000000000000000 c
b0000000000000000010101011111111111111000110111001101010011100000 d
b0000000000000000010101011111111111111000110110001101010011100000 f
b00000000000000000000000000000000 h
b00000000000000000000000000010000 i
#1
b11000000000100101000100110100011 #
b10011 $
b00101 %
b00001 &
b11111111111111111111110000010011 '
0(
b0100011 )
b000 *
1.
b00000000000000000000000000000100 /
b0011 @
b0101 A
b0001 B
1I
b00000000000000000000000000000100 Z
1^
b11111111111111111111110000010011 _
b0001 b
#2
0I
#3
b11000000010000101000000110100011 #
b00011 $
b00100 &
b11111111111111111111110000000011 '
b00000000000000000000000000001000 /
b0100 B
1I
b00000000000000000000000000001000 Z
b11111111111111111111110000000011 _
#4
0I
#5
b10000001111001110010001000000011 #
b00100 $
b01110 %
b11110 &
b11111111111111111111100000011110 '
1(
b0000011 )
b010 *
b00000000000000000000000000001100 /
b0100 @
b1110 A
b1110 B
1I
b00000000000000000000000000001100 Z
0^
b11111111111111111111100000011110 _
b0000 b
#6
0I
#7
b11111011101100101010011000000011 #
b01100 $
b00101 %
b11011 &
b11111111111111111111111110111011 '
b00000000000000000000000000010000 /
b1100 @
b0101 A
b1011 B
1I
b00000000000000000000000000010000 Z
b11111111111111111111111110111011 _
#8
0I
#9
b11000000111000000000100110100011 #
b10011 $
b00000 %
b01110 &
b11111111111111111111110000010011 '
0(
b0100011 )
b000 *
b00000000000000000000000000010100 /
b0011 @
b0000 A
b1110 B
1I
b00000000000000000000000000010100 Z
1^
b11111111111111111111110000010011 _
b0001 b
#10
0I
#11
b10111100001000010010111100100011 #
b11110 $
b00010 %
b00010 &
b11111111111111111111101111011110 '
b010 *
b00000000000000000000000000011000 /
b1110 @
b0010 A
b0010 B
1I
b00000000000000000000000000011000 Z
b11111111111111111111101111011110 _
b1111 b
#12
0I
#13
b11010011110101001010011000000011 #
b01100 $
b01001 %
b11101 &
b11111111111111111111110100111101 '
1(
b0000011 )
b00000000000000000000000000011100 /
b1100 @
b1001 A
b1101 B
1I
b00000000000000000000000000011100 Z
0^
b11111111111111111111110100111101 _
b0000 b
#14
0I
#15
b10011100011000111010000000000011 #
b00000 $
b00111 %
b00110 &
b11111111111111111111100111000110 '
b00000000000000000000000000100000 /
b0000 @
b0111 A
b0110 B
1I
b00000000000000000000000000100000 Z
b11111111111111111111100111000110 _
#16
0I
#17
b01101110101101001100001010000011 #
b00101 $
b01001 %
b01011 &
b00000000000000000000011011101011 '
b100 *
0.
b00000000000000000000000000100100 /
b0101 @
b1001 A
b1011 B
1I
b00000000000000000000000000100100 Z
b00000000000000000000011011101011 _
#18
0I
#19
b01011000000001000010011000100011 #
b01100 $
b01000 %
b00000 &
b00000000000000000000010110001100 '
0(
b0100011 )
b010 *
b00000000000000000000000000101000 /
b1100 @
b1000 A
b0000 B
1I
b00000000000000000000000000101000 Z
1^
b00000000000000000000010110001100 _
b1111 b
#20
0I
#21
b11110110101000010010011000000011 #
b00010 %
b01010 &
b11111111111111111111111101101010 '
1(
b0000011 )
1.
b00000000000000000000000000101100 /
b0010 A
b1010 B
1I
b00000000000000000000000000101100 Z
0^
b11111111111111111111111101101010 _
b0000 b
#22
0I
#23
b11001110010000101010001110100011 #
b00111 $
b00101 %
b00100 &
b11111111111111111111110011100111 '
0(
b0100011 )
b00000000000000000000000000110000 /
b0111 @
b0101 A
b0100 B
1I
b00000000000000000000000000110000 Z
1^
b11111111111111111111110011100111 _
b1111 b
#24
0I
#25
b11000000111101010000110110100011 #
b11011 $
b01010 %
b01111 &
b11111111111111111111110000011011 '
b000 *
b00000000000000000000000000110100 /
b1011 @
b1010 A
b1111 B
1I
b00000000000000000000000000110100 Z
b11111111111111111111110000011011 _
b0001 b
#26
0I
#27
b01110000010001100010110000100011 #
b11000 $
b01100 %
b00100 &
b00000000000000000000011100011000 '
b010 *
0.
b00000000000000000000000000111000 /
b1000 @
b1100 A
b0100 B
1I
b00000000000000000000000000111000 Z
b00000000000000000000011100011000 _
b1111 b
#28
0I
#29
b00011011010100001010010000000011 #
b01000 $
b00001 %
b10101 &
b00000000000000000000000110110101 '
1(
b0000011 )
b00000000000000000000000000111100 /
b0001 A
b0101 B
1I
b00000000000000000000000000111100 Z
b00000011001110111011000000100101 ]
0^
b00000000000000000000000110110101 _
b00000011001110111011000000100101 a
b0000 b
#30
0I
#31
b01000001001101101010001100000011 #
b00110 $
b01101 %
b10011 &
b00000000000000000000010000010011 '
b00000000000000000000000001000000 /
b00000011001110111011000000100101 8
b0110 @
b1101 A
b0011 B
1I
b00000011001110111011000000100101 R
b00000000000000000000000001000000 Z
b00000000000000000000000000000000 ]
b00000000000000000000010000010011 _
b00000000000000000000000000000000 a
#32
0I
#33
b10011010010101111010011010100011 #
b01101 $
b01111 %
b00101 &
b11111111111111111111100110101101 '
0(
b0100011 )
1.
b00000000000000000000000001000100 /
b1101 @
b1111 A
b0101 B
1I
b00000000000000000000000001000100 Z
1^
b11111111111111111111100110101101 _
b1111 b
#34
0I
#35
b10111100101100011010111100100011 #
b11110 $
b00011 %
b01011 &
b11111111111111111111101111011110 '
b00000000000000000000000001001000 /
b1110 @
b0011 A
b1011 B
1I
b00000000000000000000000001001000 Z
b11111111111111111111101111011110 _
#36
0I
#37
b00011010100001110010011010100011 #
b01101 $
b01110 %
b01000 &
b00000000000000000000000110101101 '
b00000011001110111011000000100101 ,
0.
b00000000000000000000000001001100 /
b1101 @
b1110 A
b1000 B
1I
b00000000000000000000000001001100 Z
b00000000000000000000000110101101 _
b00000011001110111011000000100101 `
b00000011110000001001010110001111 a
#38
0I
#39
b01110001011000000010000110000011 #
b00011 $
b00000 %
b10110 &
b00000000000000000000011100010110 '
1(
b0000011 )
b00000000000000000000000000000000 ,
b00000000000000000000000001010000 /
b0011 @
b0000 A
b0110 B
1I
b00000000000000000000000001010000 Z
0^
b00000000000000000000011100010110 _
b00000000000000000000000000000000 `
b00000000000000000000000000000000 a
b0000 b
#40
0I
#41
b11100000100001110010011000000011 #
b01100 $
b01110 %
b01000 &
b11111111111111111111111000001000 '
b00000011001110111011000000100101 ,
1.
b00000000000000000000000001010100 /
b1100 @
b1110 A
b1000 B
1I
b00000000000000000000000001010100 Z
b11111111111111111111111000001000 _
#42
0I
#43
b01111000001001101010111000100011 #
b11100 $
b01101 %
b00010 &
b00000000000000000000011110011100 '
0(
b0100011 )
b00000000000000000000000000000000 ,
0.
b00000000000000000000000001011000 /
b1101 A
b0010 B
1I
b00000000000000000000000001011000 Z
1^
b00000000000000000000011110011100 _
b1111 b
#44
0I
#45
b11000000100101010010000100000011 #
b00010 $
b01010 %
b01001 &
b11111111111111111111110000001001 '
1(
b0000011 )
1.
b00000000000000000000000001011100 /
b0010 @
b1010 A
b1001 B
1I
b00000000000000000000000001011100 Z
0^
b11111111111111111111110000001001 _
b0000 b
#46
0I
#47
b11000010001001001010000010100011 #
b00001 $
b01001 %
b00010 &
b11111111111111111111110000100001 '
0(
b0100011 )
b00000000000000000000000001100000 /
b0001 @
b1001 A
b0010 B
1I
b00000000000000000000000001100000 Z
1^
b11111111111111111111110000100001 _
b1111 b
#48
0I
#49
b10010110101100111010001000000011 #
b00100 $
b00111 %
b01011 &
b11111111111111111111100101101011 '
1(
b0000011 )
b00000000000000000000000001100100 /
b0100 @
b0111 A
b1011 B
1I
b00000000000000000000000001100100 Z
0^
b11111111111111111111100101101011 _
b0000 b
#50
0I
#51
b10100100100000010010100100100011 #
b10010 $
b00010 %
b01000 &
b11111111111111111111101001010010 '
0(
b0100011 )
b00000011001110111011000000100101 ,
b00000000000000000000000001101000 /
b0010 @
b0010 A
b1000 B
1I
b00000000000000000000000001101000 Z
1^
b11111111111111111111101001010010 _
b00000011001110111011000000100101 `
b1111 b
#52
0I
#53
b10001000100100000100000010000011 #
b00001 $
b00000 %
b01001 &
b11111111111111111111100010001001 '
1(
b0000011 )
b100 *
b00000000000000000000000000000000 ,
b00000000000000000000000001101100 /
b0001 @
b0000 A
b1001 B
1I
b00000000000000000000000001101100 Z
0^
b11111111111111111111100010001001 _
b00000000000000000000000000000000 `
b0000 b
#54
0I
#55
b00110010100100111010110010100011 #
b11001 $
b00111 %
b00000000000000000000001100111001 '
0(
b0100011 )
b010 *
0.
b00000000000000000000000001110000 /
b1001 @
b0111 A
1I
b00000000000000000000000001110000 Z
1^
b00000000000000000000001100111001 _
b1111 b
#56
0I
#57
b00000000000000101000100000100011 #
b10000 $
b00101 %
b00000 &
b00000000000000000000000000010000 '
b000 *
b00000000000000000000000001110100 /
b0000 @
b0101 A
b0000 B
1I
b00000000000000000000000001110100 Z
b00000000000000000000000000010000 _
b11111011101100101010011000000011 a
b0001 b
#58
0I
#59
b01000000001001000000100010100011 #
b10001 $
b01000 %
b00010 &
b00000000000000000000010000010001 '
b00000011001110111011000000100101 +
b00000000000000000000000001111000 /
b0001 @
b1000 A
b0010 B
1I
b00000000000000000000000001111000 Z
b00000011001110111011010000110110 _
b00000000000000000000000000000000 a
#60
0I
#61
b01010010111000110100000010000011 #
b00001 $
b00110 %
b01110 &
b00000000000000000000010100101110 '
1(
b0000011 )
b100 *
b00000000000000000000000000000000 +
b00000000000000000000000001111100 /
b0110 A
b1110 B
1I
b00000000000000000000000001111100 Z
0^
b00000000000000000000010100101110 _
b0000 b
#62
0I
#63
b01000000000000000000111010100011 #
b11101 $
b00000 %
b00000 &
b00000000000000000000010000011101 '
0(
b0100011 )
b000 *
b00000000000000000000000010000000 /
b1101 @
b0000 A
b0000 B
1I
b00000000000000000000000010000000 Z
1^
b00000000000000000000010000011101 _
b0001 b
#64
0I
#65
b11110000100000011010000010000011 #
b00001 $
b00011 %
b01000 &
b11111111111111111111111100001000 '
1(
b0000011 )
b010 *
b00000011001110111011000000100101 ,
1.
b00000000000000000000000010000100 /
b0001 @
b0011 A
b1000 B
1I
b00000000000000000000000010000100 Z
0^
b11111111111111111111111100001000 _
b0000 b
#66
0I
#67
b11101000100100010010101000100011 #
b10100 $
b00010 %
b01001 &
b11111111111111111111111010010100 '
0(
b0100011 )
b00000000000000000000000000000000 ,
b00000000000000000000000010001000 /
b0100 @
b0010 A
b1001 B
1I
b00000000000000000000000010001000 Z
1^
b11111111111111111111111010010100 _
b1111 b
#68
0I
#69
b00011100110100101010011100100011 #
b01110 $
b00101 %
b01101 &
b00000000000000000000000111001110 '
0.
b00000000000000000000000010001100 /
b1110 @
b0101 A
b1101 B
1I
b00000000000000000000000010001100 Z
b00000000000000000000000111001110 _
b10100100000000110110010000110000 a
#70
0I
#71
b11111000010101100010111000100011 #
b11100 $
b01100 %
b00101 &
b11111111111111111111111110011100 '
1.
b00000000000000000000000010010000 /
b1100 @
b1100 A
b0101 B
1I
b00000000000000000000000010010000 Z
b11111111111111111111111110011100 _
b00000000000000000000000000000000 a
#72
0I
#73
b10000000011100100000001100100011 #
b00110 $
b00100 %
b00111 &
b11111111111111111111100000000110 '
b000 *
b00000000000000000000000010010100 /
b0110 @
b0100 A
b0111 B
1I
b00000000000000000000000010010100 Z
b11111111111111111111100000000110 _
b0001 b
#74
0I
#75
b01101010101001010010101010100011 #
b10101 $
b01010 %
b01010 &
b00000000000000000000011010110101 '
b010 *
0.
b00000000000000000000000010011000 /
b0101 @
b1010 A
b1010 B
1I
b00000000000000000000000010011000 Z
b00000000000000000000011010110101 _
b1111 b
#76
0I
#77
b11011011111001010010010110000011 #
b01011 $
b11110 &
b11111111111111111111110110111110 '
1(
b0000011 )
1.
b00000000000000000000000010011100 /
b1011 @
b1110 B
1I
b00000000000000000000000010011100 Z
0^
b11111111111111111111110110111110 _
b0000 b
#78
0I
#79
b00010100110101000010010010000011 #
b01001 $
b01000 %
b01101 &
b00000000000000000000000101001101 '
b00000011001110111011000000100101 +
0.
b00000000000000000000000010100000 /
b1001 @
b1000 A
b1101 B
1I
b00000000000000000000000010100000 Z
b00000011001110111011000101110010 _
#80
0I
#81
b01000101010000010010000010000011 #
b00001 $
b00010 %
b10100 &
b00000000000000000000010001010100 '
b00000000000000000000000000000000 +
b00000000000000000000000010100100 /
b0001 @
b0010 A
b0100 B
1I
b00000000000000000000000010100100 Z
b00000000000000000000010001010100 _
#82
0I
#83
b00000000000101000000010000100011 #
b01000 $
b01000 %
b00001 &
b00000000000000000000000000001000 '
0(
b0100011 )
b000 *
b00000011001110111011000000100101 +
b00000000000000000000000010101000 /
b1000 @
b1000 A
b0001 B
1I
b00000000000000000000000010101000 Z
1^
b00000011001110111011000000101101 _
b0001 b
#84
0I
#85
b00100001010000100100010010000011 #
b01001 $
b00100 %
b10100 &
b00000000000000000000001000010100 '
1(
b0000011 )
b100 *
b00000000000000000000000000000000 +
b00000000000000000000000010101100 /
b1001 @
b0100 A
b0100 B
1I
b00000000000000000000000010101100 Z
b00000000000000000000000000000011 ]
0^
b00000000000000000000001000010100 _
b00000001101100101100000100000011 a
b0000 b
#86
0I
#87
b11010011101001101100000110000011 #
b00011 $
b01101 %
b11010 &
b11111111111111111111110100111010 '
1.
b00000000000000000000000010110000 /
b00000000000000000000000000000011 9
b0011 @
b1101 A
b1010 B
1I
b00000000000000000000000000000011 S
b00000000000000000000000010110000 Z
b00000000000000000000000000000000 ]
b11111111111111111111110100111010 _
b00000000000000000000000000000000 a
#88
0I
#89
b00100110111001011010100110100011 #
b10011 $
b01011 %
b01110 &
b00000000000000000000001001110011 '
0(
b0100011 )
b010 *
0.
b00000000000000000000000010110100 /
b1011 A
b1110 B
1I
b00000000000000000000000010110100 Z
1^
b00000000000000000000001001110011 _
b11100110101011110010001101010000 a
b1111 b
#90
0I
#91
b00011001101101111010010100000011 #
b01010 $
b01111 %
b11011 &
b00000000000000000000000110011011 '
1(
b0000011 )
b00000000000000000000000010111000 /
b1010 @
b1111 A
b1011 B
1I
b00000000000000000000000010111000 Z
b01100111001001010000001111111000 ]
0^
b00000000000000000000000110011011 _
b01100111001001010000001111111000 a
b0000 b
#92
0I
#93
b10111010001100100100010010000011 #
b01001 $
b00100 %
b00011 &
b11111111111111111111101110100011 '
b100 *
1.
b00000000000000000000000010111100 /
b01100111001001010000001111111000 :
b1001 @
b0100 A
b0011 B
1I
b01100111001001010000001111111000 T
b00000000000000000000000010111100 Z
b00000000000000000000000000000000 ]
b11111111111111111111101110100011 _
b00000000000000000000000000000000 a
#94
0I
#95
b11000000001100100000011110100011 #
b01111 $
b11111111111111111111110000001111 '
0(
b0100011 )
b000 *
b00000000000000000000000011000000 /
b00000000000000000000000000000000 9
b1111 @
1I
b00000000000000000000000000000000 S
b00000000000000000000000011000000 Z
1^
b11111111111111111111110000001111 _
b0001 b
#96
0I
#97
b00010000011101111010010000100011 #
b01000 $
b01111 %
b00111 &
b00000000000000000000000100001000 '
b010 *
0.
b00000000000000000000000011000100 /
b1000 @
b1111 A
b0111 B
1I
b00000000000000000000000011000100 Z
b00000000000000000000000100001000 _
b11100100000001010100001010000011 a
b1111 b
#98
0I
#99
b00001100001101000100000010000011 #
b00001 $
b01000 %
b00011 &
b00000000000000000000000011000011 '
1(
b0000011 )
b100 *
b00000011001110111011000000100101 +
b00000000000000000000000011001000 /
b0001 @
b1000 A
b0011 B
1I
b00000000000000000000000011001000 Z
0^
b00000011001110111011000011101000 _
b00000000000000000000000000000000 a
b0000 b
#100
0I
#101
b11011110011000010010001100000011 #
b00110 $
b00010 %
b00110 &
b11111111111111111111110111100110 '
b010 *
b00000000000000000000000000000000 +
1.
b00000000000000000000000011001100 /
b0110 @
b0010 A
b0110 B
1I
b00000000000000000000000011001100 Z
b11111111111111111111110111100110 _
#102
0I
#103
b01011000100101011010011000100011 #
b01100 $
b01011 %
b01001 &
b00000000000000000000010110001100 '
0(
b0100011 )
0.
b00000000000000000000000011010000 /
b1100 @
b1011 A
b1001 B
1I
b00000000000000000000000011010000 Z
1^
b00000000000000000000010110001100 _
b1111 b
#104
0I
#105
b00100100101000001010100100100011 #
b10010 $
b00001 %
b01010 &
b00000000000000000000001001010010 '
b01100111001001010000001111111000 ,
b00000000000000000000000011010100 /
b0010 @
b0001 A
b1010 B
1I
b00000000000000000000000011010100 Z
b00000000000000000000001001010010 _
b01100111001001010000001111111000 `
b10001100001000110011001110100010 a
#106
0I
#107
b11000000100100011000011110100011 #
b01111 $
b00011 %
b01001 &
b11111111111111111111110000001111 '
b000 *
b00000000000000000000000000000000 ,
1.
b00000000000000000000000011011000 /
b1111 @
b0011 A
b1001 B
1I
b00000000000000000000000011011000 Z
b11111111111111111111110000001111 _
b00000000000000000000000000000000 `
b00000000000000000000000000000000 a
b0001 b
#108
0I
#109
b00111010001100011010000110000011 #
b00011 $
b00011 &
b00000000000000000000001110100011 '
1(
b0000011 )
b010 *
0.
b00000000000000000000000011011100 /
b0011 @
b0011 B
1I
b00000000000000000000000011011100 Z
0^
b00000000000000000000001110100011 _
b0000 b
#110
0I
#111
b01001011000001000100000010000011 #
b00001 $
b01000 %
b10000 &
b00000000000000000000010010110000 '
b100 *
b00000011001110111011000000100101 +
b00000000000000000000000011100000 /
b0001 @
b1000 A
b0000 B
1I
b00000000000000000000000011100000 Z
b00000011001110111011010011010101 _
#112
0I
#113
b10111100000100101010010000000011 #
b01000 $
b00101 %
b00001 &
b11111111111111111111101111000001 '
b010 *
b00000000000000000000000000000000 +
1.
b00000000000000000000000011100100 /
b1000 @
b0101 A
b0001 B
1I
b00000000000000000000000011100100 Z
b11111111111111111111101111000001 _
#114
0I
#115
b01000000101101110000101010100011 #
b10101 $
b01110 %
b01011 &
b00000000000000000000010000010101 '
0(
b0100011 )
b000 *
0.
b00000000000000000000000011101000 /
b00000000000000000000000000000000 8
b0101 @
b1110 A
b1011 B
1I
b00000000000000000000000000000000 R
b00000000000000000000000011101000 Z
1^
b00000000000000000000010000010101 _
b0001 b
#116
0I
#117
b11001011011001101010001110000011 #
b00111 $
b01101 %
b10110 &
b11111111111111111111110010110110 '
1(
b0000011 )
b010 *
1.
b00000000000000000000000011101100 /
b0111 @
b1101 A
b0110 B
1I
b00000000000000000000000011101100 Z
0^
b11111111111111111111110010110110 _
b0000 b
#118
0I
#119
b01111000010101100010111000100011 #
b11100 $
b01100 %
b00101 &
b00000000000000000000011110011100 '
0(
b0100011 )
0.
b00000000000000000000000011110000 /
b1100 @
b1100 A
b0101 B
1I
b00000000000000000000000011110000 Z
1^
b00000000000000000000011110011100 _
b1111 b
#120
0I
#121
b01011101110001000010010110000011 #
b01011 $
b01000 %
b11100 &
b00000000000000000000010111011100 '
1(
b0000011 )
b00000000000000000000000011110100 /
b1011 @
b1000 A
b1100 B
1I
b00000000000000000000000011110100 Z
0^
b00000000000000000000010111011100 _
b0000 b
#122
0I
#123
b10010010010101011010010110000011 #
b01011 %
b00101 &
b11111111111111111111100100100101 '
1.
b00000000000000000000000011111000 /
b1011 A
b0101 B
1I
b00000000000000000000000011111000 Z
b11111111111111111111100100100101 _
#124
0I
#125
b11000100100100100100011110000011 #
b01111 $
b00100 %
b01001 &
b11111111111111111111110001001001 '
b100 *
b00000000000000000000000011111100 /
b1111 @
b0100 A
b1001 B
1I
b00000000000000000000000011111100 Z
b11111111111111111111110001001001 _
#126
0I
#127
b01000010000000001010000010100011 #
b00001 $
b00001 %
b00000 &
b00000000000000000000010000100001 '
0(
b0100011 )
b010 *
0.
b00000000000000000000000100000000 /
b0001 @
b0001 A
b0000 B
1I
b00000000000000000000000100000000 Z
1^
b00000000000000000000010000100001 _
b1111 b
#128
0I
#129
b10101111010001001010001110000011 #
b00111 $
b01001 %
b10100 &
b11111111111111111111101011110100 '
1(
b0000011 )
1.
b00000000000000000000000100000100 /
b0111 @
b1001 A
b0100 B
1I
b00000000000000000000000100000100 Z
0^
b11111111111111111111101011110100 _
b0000 b
#130
0I
#131
b00000000000000000000000000000000 #
b00000 $
b00000 %
b00000 &
b00000000000000000000000000000000 '
0(
b0000000 )
b000 *
0.
b00000000000000000000000100001000 /
b0000 @
b0000 A
b0000 B
1I
b00000000000000000000000100001000 Z
b00000000000000000000000000000000 _
b00110010001101110010000000000011 a
#132
0I
#133
b11000000110100101000000110100011 #
b00011 $
b00101 %
b01101 &
b11111111111111111111110000000011 '
b0100011 )
1.
b00000000000000000000000100001100 /
b0011 @
b0101 A
b1101 B
1I
b00000000000000000000000100001100 Z
1^
b11111111111111111111110000000011 _
b00000000000000000000000000000000 a
b0001 b
#134
0I
#135
b10000000001001011000011100100011 #
b01110 $
b01011 %
b00010 &
b11111111111111111111100000001110 '
b00000000000000000000000100010000 /
b1110 @
b1011 A
b0010 B
1I
b00000000000000000000000100010000 Z
b11111111111111111111100000001110 _
#136
0I
#137
b10000000101000111000000100100011 #
b00010 $
b00111 %
b01010 &
b11111111111111111111100000000010 '
b01100111001001010000001111111000 ,
b00000000000000000000000100010100 /
b0010 @
b0111 A
b1010 B
1I
b00000000000000000000000100010100 Z
b11111111111111111111100000000010 _
b00000000000000000000000011111000 `
#138
0I
#139
b01100100100000001010100100100011 #
b10010 $
b00001 %
b01000 &
b00000000000000000000011001010010 '
b010 *
b00000000000000000000000000000000 ,
0.
b00000000000000000000000100011000 /
b0001 A
b1000 B
1I
b00000000000000000000000100011000 Z
b00000000000000000000011001010010 _
b00000000000000000000000000000000 `
b1111 b
#140
0I
#141
b10111001111100101010011000000011 #
b01100 $
b00101 %
b11111 &
b11111111111111111111101110011111 '
1(
b0000011 )
1.
b00000000000000000000000100011100 /
b1100 @
b0101 A
b1111 B
1I
b00000000000000000000000100011100 Z
0^
b11111111111111111111101110011111 _
b0000 b
